[
    { "name":"anik", "sub":"CSE"},
    { "name":"banik", "sub":"EEE"},
    { "name":"kanik", "sub":"ETE"},
    { "name":"asu", "sub":"IT"},
    { "name":"sojib", "sub":"CEC"},
    { "name":"munna", "sub":"CSE"},
    { "name":"mithun", "sub":"MCE"},
    { "name":"evon", "sub":"CSE"},
    { "name":"shuvo", "sub":"CSE"},
    { "name":"anik", "sub":"CSE"},
    { "name":"rasel", "sub":"CSE"}

]
